…
-   MSY管理基準値計算では，上記の将来予測において，Fcurrentの値に様々な乗数を乗じたF一定方策における平衡状態時の（世代時間×20年を`nyear`で指定します）資源量やそれに対応するF等を管理基準値として算出します
-   なので、ここまでのプロセスで、ABC計算のためにきちんとしたオプションを設定したfuture.vpaを実行しておいてください。その返り値`future.Fcurrent`をMSY計算では使っていきます
-   MSY.est関数の引数の詳細な解説は[こちら](https://ichimomo.github.io/future-rvpa/future-doc-abc.html#msy%E7%AE%A1%E7%90%86%E5%9F%BA%E6%BA%96%E5%80%A4%E3%81%AE%E8%A8%88%E7%AE%97)
-   オプション`PGY`(MSYに対する比率を指定) や`B0percent`(B0に対する比率を指定)、`Bempirical`(親魚資源量の絶対値で指定)で、別の管理基準値も同時に計算できます。
-   最近年の親魚量で維持した場合の管理基準値も、比較のためにあとで見るため`Bempirical`で指定しておいてください。また、B\_HS(HSの折れ点)や最大親魚量などもここで計算しておいても良いかと。。。

### 結果の表示

-   `MSY.base$summary_tb`にすべての結果が入っています。

<!-- -->

    # A tibble: 34 x 13
       RP_name AR       SSB      B      U  Catch `Fref/Fcur` `SSB/SSB0`
       <chr>   <lgl>  <dbl>  <dbl>  <dbl>  <dbl>       <dbl>      <dbl>
     1 MSY     FALSE 1.25e5 2.21e5 0.325  71794.      0.490      0.256 
     2 B0      FALSE 4.88e5 5.93e5 0          0       0          1     
     3 PGY_0.… FALSE 1.90e5 2.89e5 0.236  68205.      0.301      0.389 
     4 PGY_0.… FALSE 6.97e4 1.60e5 0.427  68205.      0.832      0.143 
     5 PGY_0.… FALSE 2.19e5 3.20e5 0.202  64615.      0.244      0.450 
     6 PGY_0.… FALSE 5.85e4 1.44e5 0.447  64615.      0.931      0.120 
     7 PGY_0.… FALSE 3.32e5 4.36e5 0.0988 43080.      0.104      0.681 
     8 PGY_0.… FALSE 3.55e4 9.37e4 0.460  43074.      1.01       0.0728
     9 PGY_0.… FALSE 4.64e5 5.70e5 0.0126  7172.      0.0121     0.952 
    10 PGY_0.… FALSE 5.56e3 1.52e4 0.473   7175.      1.08       0.0114
    # ... with 24 more rows, and 5 more variables: Fref2Fcurrent <dbl>,
    #   F0 <dbl>, F1 <dbl>, F2 <dbl>, F3 <dbl>

### 管理基準値の選択

-   **設定ポイント** est.MSYで計算された管理基準値から、何をBtarget, Blimit, Bbanとして用いるかをチョイスします。
-   具体的には、refs.allにRP.definitionという新しい列をひとつ作って、その列にそれぞれの管理基準値をどのように使うかを指定します
-   「管理基準値名 + 0」はデフォルト規則による管理基準値
-   代替候補がある場合は「管理基準値名 + 数字」として指定
-   たとえば目標管理基準値の第一候補はBmsyなのでRP\_nameがMSYでARなしの行のRP.definitionには"Btarget0"と入力します
-   Rコードがちょっと汚いですがご容赦ください。いい方法あったら教えてください。

<!-- -->

    # A tibble: 34 x 2
       RP_name        RP.definition
       <chr>          <chr>        
     1 MSY            Btarget0     
     2 B0             <NA>         
     3 PGY_0.95_upper <NA>         
     4 PGY_0.95_lower Btarget2     
     5 PGY_0.9_upper  <NA>         
     6 PGY_0.9_lower  Blow0        
     7 PGY_0.6_upper  <NA>         
     8 PGY_0.6_lower  Blimit0      
     9 PGY_0.1_upper  <NA>         
    10 PGY_0.1_lower  Bban0        
    # ... with 24 more rows
…
    4 HCR is calculated:  Btarget0-Blimit0-Bban0 Btarget0-Blimit1-Bban0 Btarget1-Blimit0-Bban0 Btarget1-Blimit1-Bban0 

    # A tibble: 24 x 11
       HCR_name  beta `2018` `2019` `2020` `2021` `2022` `2023` `2028` `2038`
       <chr>    <dbl>  <dbl>  <dbl>  <dbl>  <dbl>  <dbl>  <dbl>  <dbl>  <dbl>
     1 Btarget…   1    31000  16000  36000  52000  63000  69000  72000  71000
     2 Btarget…   0.9  31000  15000  34000  50000  62000  69000  72000  71000
     3 Btarget…   0.8  31000  14000  32000  48000  61000  68000  71000  71000
     4 Btarget…   0.7  31000  12000  30000  46000  59000  66000  70000  70000
     5 Btarget…   0.6  31000  11000  27000  42000  56000  63000  68000  68000
     6 Btarget…   0.5  31000   9000  24000  38000  51000  59000  65000  65000
     7 Btarget…   1    31000  20000  33000  48000  61000  68000  72000  71000
     8 Btarget…   0.9  31000  19000  31000  47000  60000  67000  72000  71000
     9 Btarget…   0.8  31000  17000  30000  46000  59000  67000  71000  71000
    10 Btarget…   0.7  31000  15000  28000  44000  57000  65000  70000  70000
    # ... with 14 more rows, and 1 more variable: stat_name <chr>
