…
``` r
# 結果の表示(tibbleという形式で表示されます)
(refs_all <- MSY_base$summary_tb)
```

    # A tibble: 34 x 13
       RP_name AR       SSB      B      U  Catch `Fref/Fcur` `SSB/SSB0`
       <chr>   <lgl>  <dbl>  <dbl>  <dbl>  <dbl>       <dbl>      <dbl>
     1 MSY     FALSE 1.25e5 2.21e5 0.325  71794.      0.490      0.256 
     2 B0      FALSE 4.88e5 5.93e5 0          0       0          1     
     3 PGY_0.… FALSE 1.90e5 2.89e5 0.236  68205.      0.301      0.389 
     4 PGY_0.… FALSE 6.97e4 1.60e5 0.427  68205.      0.832      0.143 
     5 PGY_0.… FALSE 2.19e5 3.20e5 0.202  64615.      0.244      0.450 
     6 PGY_0.… FALSE 5.85e4 1.44e5 0.447  64615.      0.931      0.120 
     7 PGY_0.… FALSE 3.32e5 4.36e5 0.0988 43080.      0.104      0.681 
     8 PGY_0.… FALSE 3.55e4 9.37e4 0.460  43074.      1.01       0.0728
     9 PGY_0.… FALSE 4.64e5 5.70e5 0.0126  7172.      0.0121     0.952 
    10 PGY_0.… FALSE 5.56e3 1.52e4 0.473   7175.      1.08       0.0114
    # ... with 24 more rows, and 5 more variables: Fref2Fcurrent <dbl>,
    #   F0 <dbl>, F1 <dbl>, F2 <dbl>, F3 <dbl>
…
